…
``` r
alcohol$total_servings = alcohol$beer_servings + alcohol$wine_servings + alcohol$spirit_servings
alcohol %>%
  tbl_df() %>%
  mutate(total_servings = beer_servings + wine_servings + spirit_servings)
```

    ## # A tibble: 193 x 6
    ##    country beer_servings spirit_servings wine_servings total_litres_of~
    ##    <chr>           <dbl>           <dbl>         <dbl>            <dbl>
    ##  1 Afghan~             0               0             0              0  
    ##  2 Albania            89             132            54              4.9
    ##  3 Algeria            25               0            14              0.7
    ##  4 Andorra           245             138           312             12.4
    ##  5 Angola            217              57            45              5.9
    ##  6 Antigu~           102             128            45              4.9
    ##  7 Argent~           193              25           221              8.3
    ##  8 Armenia            21             179            11              3.8
    ##  9 Austra~           261              72           212             10.4
    ## 10 Austria           279              75           191              9.7
    ## # ... with 183 more rows, and 1 more variable: total_servings <dbl>
…
